%YAML 1.1
%TAG !u! tag:unity3d.com,2011:
--- !u!1045 &1
EditorBuildSettings:
  m_ObjectHideFlags: 0
  serializedVersion: 2
  m_Scenes:
  - enabled: 1
    path: Assets/Start.unity
    guid: 2776215634fd5d947ae47b65b0461fb4
  - enabled: 1
    path: Assets/Game.unity
    guid: 87bb3417f7a92ec4289d95ce0d3c227b
  - enabled: 1
    path: Assets/Lose.unity
    guid: d497060c482369148940c796bed69a7b
  - enabled: 1
    path: Assets/Win.unity
    guid: a5d77e4edad2add4caf0754dd322bf2b
